========================================================================
ISSUES-HINT: Missing hints
------------------------------------------------------------------------

  ####   #####    ####      #    #       ######  #####    ####
 #       #    #  #    #     #    #       #       #    #  #
  ####   #    #  #    #     #    #       #####   #    #   ####
      #  #####   #    #     #    #       #       #####        #
 #    #  #       #    #     #    #       #       #   #   #    #
  ####   #        ####      #    ######  ######  #    #   ####

N.B. this is just for the running list of features that need to be added
to hint system coverage, NOT necessarily for issues with the hint SYSTEM
itself.

- Soak-tickling

- Zoom and far-zoom

........................................................................
========================================================================
